SRC/SplitMix64/splitmix64_tb.vcd
$date
	Sun Dec  7 03:49:16 2025
$end
$version
	Icarus Verilog
$end
$timescale
	1ps
$end
$scope module tb_splitmix64 $end
$var wire 64 ! rand_out [63:0] $end
$var reg 1 " clk $end
$var reg 1 # en $end
$var reg 1 $ rst $end
$var reg 64 % seed [63:0] $end
$scope module uut $end
$var wire 1 " clk $end
$var wire 64 & data_in [63:0] $end
$var wire 1 # en $end
$var wire 1 $ rst $end
$var reg 64 ' out [63:0] $end
$var reg 64 ( state [63:0] $end
$var reg 64 ) z [63:0] $end
$upscope $end
$upscope $end
$enddefinitions $end
$comment Show the parameter values. $end
$dumpall
$end
#0
$dumpvars
bx )
b1001000110100010101100111100010011010101111001101111011110000 (
b0 '
b1001000110100010101100111100010011010101111001101111011110000 &
b1001000110100010101100111100010011010101111001101111011110000 %
1$
0#
0"
b0 !
$end
#5000
1"
#10000
0"
1#
0$
#15000
b1001011000101001111101011000111010001110110001011011100100000110 !
b1001011000101001111101011000111010001110110001011011100100000110 '
b1011000001101011110100000011001000011010000001110101101100000101 (
b1001011000101001111101011000111010001110110001011011100100000110 )
1"
#20000
0"
#25000
b1011000011001001000101100011001000101110011100101000011101000 !
b1011000011001001000101100011001000101110011100101000011101000 '
b100111010100011010010011110101110011001010100011101011100011010 (
b1011000011001001000101100011001000101110011100101000011101000 )
1"
#30000
0"
#35000
b1010110101110110000011001010111110100001011010010111101101100000 !
b1010110101110110000011001010111110100001011010010111101101100000 '
b1110110011011010110000111010010100011000100111000101001100101111 (
b1010110101110110000011001010111110100001011010010111101101100000 )
1"
#40000
0"
#45000
b11010100000001111111110100010010010000001011001010010100001101 !
b11010100000001111111110100010010010000001011001010010100001101 '
b1000101100010010001111010101111010010111111001101100111101000100 (
b11010100000001111111110100010010010000001011001010010100001101 )
1"
#50000
0"
#55000
b100000101111100101110011010100000100110110110000011000111011111 !
b100000101111100101110011010100000100110110110000011000111011111 '
b10100101001001101101110001100000010111001100010100101101011001 (
b100000101111100101110011010100000100110110110000011000111011111 )
1"
#60000
0"
#65000
b1001100110101111011011111001101100001100010001000111011010110110 !
b1001100110101111011011111001101100001100010001000111011010110110 '
b1100011110000001001100001101000110010110011110111100011101101110 (
b1001100110101111011011111001101100001100010001000111011010110110 )
1"
#70000
0"
#75000
b101110101010001111101011111011101011011011101100010110001011001 !
b101110101010001111101011111011101011011011101100010110001011001 '
b110010110111000101010101000101100010101110001100100001110000011 (
b101110101010001111101011111011101011011011101100010110001011001 )
1"
#80000
0"
#85000
b110011000100011100111101000110000110000100110100010100000101011 !
b110011000100011100111101000110000110000100110100010100000101011 '
b1111110000001001000100010010010101000100001011111110011000 (
b110011000100011100111101000110000110000100110100010100000101011 )
1"
#90000
0"
#95000
b101001111100000000111110101100000001001000101101100010111001011 !
b101001111100000000111110101100000001001000101101100010111001011 '
b1010001000100111100111011111111000010100010110110011101110101101 (
b101001111100000000111110101100000001001000101101100010111001011 )
1"
#100000
0"
#105000
b1010101010010100000100000001011010100100110000101001010110001011 !
b1010101010010100000100000001011010100100110000101001010110001011 '
b100000001011111000101111011011110010011101001011011011111000010 (
b1010101010010100000100000001011010100100110000101001010110001011 )
1"
