PRNG/LCG/lcg_tb.vcd
$date
	Sat Dec  6 01:40:17 2025
$end
$version
	Icarus Verilog
$end
$timescale
	1ps
$end
$scope module lcg_tb $end
$var wire 31 ! out [30:0] $end
$var reg 1 " clk $end
$var reg 1 # rst $end
$var reg 31 $ seed [30:0] $end
$scope module uut $end
$var wire 1 " clk $end
$var wire 1 # rst $end
$var wire 31 % seed [30:0] $end
$var parameter 32 & A $end
$var parameter 32 ' C $end
$var parameter 33 ( M $end
$var reg 31 ) inter [30:0] $end
$var reg 31 * out [30:0] $end
$upscope $end
$upscope $end
$enddefinitions $end
$comment Show the parameter values. $end
$dumpall
b10000000000000000000000000000000 (
b1001101001111011000011 '
b110100001111111101 &
$end
#0
$dumpvars
b100111111001000010010111000 *
b100111111001000010010111000 )
b100111111001000010010111000 %
b100111111001000010010111000 $
1#
0"
b100111111001000010010111000 !
$end
#5000
1"
#10000
0"
0#
#15000
b10010100110011111000010011011 )
1"
#20000
0"
#25000
b10010100110011111000010011011 !
b10010100110011111000010011011 *
b1111110000100101111100011110010 )
1"
#30000
0"
#35000
b1111110000100101111100011110010 !
b1111110000100101111100011110010 *
b1111010111000111111101111101101 )
1"
#40000
0"
#45000
b1111010111000111111101111101101 !
b1111010111000111111101111101101 *
b10010001011001001111011111100 )
1"
#50000
0"
#55000
b10010001011001001111011111100 !
b10010001011001001111011111100 *
b110011111011000111001111 )
1"
#60000
0"
#65000
b110011111011000111001111 !
b110011111011000111001111 *
b111110010111111000010101010110 )
1"
#70000
0"
#75000
b111110010111111000010101010110 !
b111110010111111000010101010110 *
b110100011101001110011011000001 )
1"
#80000
0"
#85000
b110100011101001110011011000001 !
b110100011101001110011011000001 *
b100100010101100010111010000000 )
1"
#90000
0"
#95000
b100100010101100010111010000000 !
b100100010101100010111010000000 *
b10111111100001001101000011 )
1"
#100000
0"
#105000
b10111111100001001101000011 !
b10111111100001001101000011 *
b101110000100110011000011111010 )
1"
#110000
0"
#115000
b101110000100110011000011111010 !
b101110000100110011000011111010 *
b100001110111010111001111010101 )
1"
#120000
0"
#125000
b100001110111010111001111010101 !
b100001110111010111001111010101 *
b1001000110100011101011101000100 )
1"
#130000
0"
#135000
b1001000110100011101011101000100 !
b1001000110100011101011101000100 *
b1101000101010110010100011110111 )
1"
#140000
0"
#145000
b1101000101010110010100011110111 !
b1101000101010110010100011110111 *
b110111111010111011111111011110 )
1"
#150000
0"
#155000
b110111111010111011111111011110 !
b110111111010111011111111011110 *
b110110111101000101011100101001 )
1"
#160000
0"
#165000
b110110111101000101011100101001 !
b110110111101000101011100101001 *
b1000111111010110111110101001000 )
1"
#170000
0"
#175000
b1000111111010110111110101001000 !
b1000111111010110111110101001000 *
b101101100000110100011011101011 )
1"
#180000
0"
#185000
b101101100000110100011011101011 !
b101101100000110100011011101011 *
b101011001101000011011000000010 )
1"
#190000
0"
#195000
b101011001101000011011000000010 !
b101011001101000011011000000010 *
b1111110111010001000010010111101 )
1"
#200000
0"
#205000
b1111110111010001000010010111101 !
b1111110111010001000010010111101 *
b1010100111001100100010010001100 )
1"
