PRNG/PCG/PCG-XSH-RR/pcg-xsh-rr_wave.vcd
$date
	Sun Dec  7 00:23:34 2025
$end
$version
	Icarus Verilog
$end
$timescale
	1ps
$end
$scope module tb_pcg $end
$var wire 32 ! out [31:0] $end
$var reg 64 " Seed [63:0] $end
$var reg 1 # clk $end
$var reg 1 $ en $end
$var reg 1 % rst $end
$scope module uut $end
$var wire 64 & Seed [63:0] $end
$var wire 1 # clk $end
$var wire 1 $ en $end
$var wire 1 % rst $end
$var parameter 64 ' A $end
$var parameter 64 ( C $end
$var reg 32 ) out [31:0] $end
$var reg 5 * rot [4:0] $end
$var reg 64 + state [63:0] $end
$var reg 32 , xorshifted [31:0] $end
$upscope $end
$upscope $end
$enddefinitions $end
$comment Show the parameter values. $end
$dumpall
b1010000000101011110110111111011110111011001111000000101001111 (
b101100001010001111101000010110101001100100101010111111100101101 '
$end
#0
$dumpvars
bx ,
bx +
bx *
bx )
b1101010011100001001011110111011111001010111111101011101010111110 &
1%
0$
0#
b1101010011100001001011110111011111001010111111101011101010111110 "
bx !
$end
#5000
b11110000111111001010111001001 !
b11110000111111001010111001001 )
b1101010011100001001011110111011111001010111111101011101010111110 +
1#
#10000
0#
#15000
1#
#20000
0#
0%
#25000
1#
#30000
0#
1$
#35000
bx !
bx )
b11010 *
b10011100001000110100100111110000 ,
b100011000000101111100100101101100011101011010001001011010110101 +
1#
#40000
0#
#45000
b1000110100100111110000100111 !
b1000110100100111110000100111 )
b1000 *
b11000000101111000111101101001100 ,
b11010001011011011101011000100001111000111001101100101000100000 +
1#
#50000
0#
#55000
b1001100110000001011110001111011 !
b1001100110000001011110001111011 )
b110 *
b10001011011011110001001111010100 ,
b1100000100010010110000100110101111011010110111101110100011101111 +
1#
#60000
0#
#65000
b1010010001011011011110001001111 !
b1010010001011011011110001001111 )
b11000 *
b100010010111100100010111101101 ,
b100101101010111011110001111000010001101010000000000010001010010 +
1#
#70000
0#
#75000
b1011110010001011110110100100010 !
b1011110010001011110110100100010 )
b1001 *
b1101010111011010100010010101010 ,
b1110101110100111001101011100111101101001100001101111000110111001 +
1#
#80000
0#
#85000
b1010101001101010111011010100010 !
b1010101001101010111011010100010 )
b11101 *
b1110100111000011110010011010100 ,
b1001011111001110001000110010000100010010101101111100010111010100 +
1#
#90000
0#
#95000
b10100111000011110010011010100011 !
b10100111000011110010011010100011 )
b10010 *
b11111001110000001101101001010011 ,
b11010101101101010110101000110110000001001111010111001110010011 +
1#
#100000
0#
#105000
b110110100101001111111001110000 !
b110110100101001111111001110000 )
b110 *
b10101101101010101111101011011010 ,
b1101001001011101011111010110011100010100000110011011111100100110 +
1#
#110000
0#
#115000
b1101010101101101010101111101011 !
b1101010101101101010101111101011 )
b11010 *
b1001011101010010011111000001001 ,
b1010010001011101110100101111111111001110110111111111010011111101 +
1#
#120000
0#
#125000
b11101010010011111000001001010010 !
b11101010010011111000001001010010 )
b10100 *
b10001011101111110111110100010111 ,
b1001001101101010100100111010010100100010100100000001010011001000 +
1#
#130000
0#
#135000
b11110111110100010111100010111011 !
b11110111110100010111100010111011 )
b10010 *
b1101101010101101110111111110000 ,
b1000110011001010100001101101101011111101011100100110000001110111 +
1#
#140000
0#
#145000
b10111011111111000001101101010101 !
b10111011111111000001101101010101 )
b10001 *
b10011001010101001011110100001011 ,
b1100101111101100101011001101100110111011101000000111111100111010 +
1#
#150000
0#
#155000
b1011110100001011100110010101010 !
b1011110100001011100110010101010 )
b11001 *
b1111101100100111100010001010010 ,
b1011101010100001011000010011101011010110011111011010010010000001 +
1#
#160000
0#
#165000
b11001001111000100010100100111110 !
b11001001111000100010100100111110 )
b10111 *
b1010100001010011111001001010001 ,
b1101101000111101110001011110001100001011001011100110101011111100 +
1#
#170000
0#
#175000
b1010011111001001010001010101000 !
b1010011111001001010001010101000 )
b11011 *
b1000111101111100110110110001111 ,
b101100101100001001011110000011100001010010011110101001110011011 +
1#
#180000
0#
#185000
b11110111110011011011000111101000 !
b11110111110011011011000111101000 )
b1011 *
b101100001001110010101111101000 ,
b1001111001000100001110010001010111001111000010100001100010001110 +
1#
#190000
0#
#195000
b1111101000001011000010011100101 !
b1111101000001011000010011100101 )
b10011 *
b11001000100000111101000010011000 ,
b101010011001011111110010101011010001000000100100010001000101 +
1#
#200000
0#
#205000
b1111010000100110001100100010000 !
b1111010000100110001100100010000 )
b1 *
b1010011001011111011000110010001 ,
b100101011100001010100110110100001100110101001011110001110000 +
1#
#210000
0#
#215000
b10101001100101111101100011001000 !
b10101001100101111101100011001000 )
b101011100001010000011101000000 ,
b1010011111111100100010010111101010101111011110000011000011111111 +
1#
#220000
0#
#225000
b10101110000101000001110100000 !
b10101110000101000001110100000 )
b10100 *
b11111111100101000001000010110001 ,
b1110001110011111111110110110111110101000010000011001111100100010 +
0$
1#
