SRC/Xorshift/Xorshift32/xorshift32_tb.vcd
$date
	Sun Dec  7 01:00:49 2025
$end
$version
	Icarus Verilog
$end
$timescale
	1ps
$end
$scope module tb_xorshift32 $end
$var wire 32 ! out [31:0] $end
$var reg 1 " clk $end
$var reg 1 # en $end
$var reg 1 $ rst $end
$var reg 32 % seed [31:0] $end
$scope module dut $end
$var wire 1 " clk $end
$var wire 1 # en $end
$var wire 1 $ rst $end
$var wire 32 & seed [31:0] $end
$var reg 32 ' out [31:0] $end
$var reg 32 ( state [31:0] $end
$upscope $end
$upscope $end
$enddefinitions $end
$comment Show the parameter values. $end
$dumpall
$end
#0
$dumpvars
b10010001101000101011001111000 (
b0 '
b10010001101000101011001111000 &
b10010001101000101011001111000 %
1$
0#
0"
b0 !
$end
#5000
1"
#10000
0"
1#
0$
#15000
b10010001101000101011001111000 !
b10010001101000101011001111000 '
b1010100101111101001100101111000 (
1"
#20000
0"
#25000
b1010100101111101001100101111000 !
b1010100101111101001100101111000 '
b11000011011011011011011001111000 (
1"
#30000
0"
#35000
b11000011011011011011011001111000 !
b11000011011011011011011001111000 '
b10101110110110110111100101111000 (
1"
#40000
0"
#45000
b10101110110110110111100101111000 !
b10101110110110110111100101111000 '
b1110101101101000101011001111000 (
1"
#50000
0"
#55000
b1110101101101000101011001111000 !
b1110101101101000101011001111000 '
b11000011001111101001100101111000 (
1"
#60000
0"
#65000
b11000011001111101001100101111000 !
b11000011001111101001100101111000 '
b10100100111011011011011001111000 (
1"
#70000
0"
#75000
b10100100111011011011011001111000 !
b10100100111011011011011001111000 '
b111001010110110111100101111000 (
1"
#80000
0"
#85000
b111001010110110111100101111000 !
b111001010110110111100101111000 '
b10010001101000101011001111000 (
1"
#90000
0"
#95000
b10010001101000101011001111000 !
b10010001101000101011001111000 '
b1010100101111101001100101111000 (
1"
#100000
0"
#105000
b1010100101111101001100101111000 !
b1010100101111101001100101111000 '
b11000011011011011011011001111000 (
1"
#110000
0"
#115000
b11000011011011011011011001111000 !
b11000011011011011011011001111000 '
b10101110110110110111100101111000 (
1"
#120000
0"
#125000
b10101110110110110111100101111000 !
b10101110110110110111100101111000 '
b1110101101101000101011001111000 (
1"
#130000
0"
#135000
b1110101101101000101011001111000 !
b1110101101101000101011001111000 '
b11000011001111101001100101111000 (
1"
#140000
0"
#145000
b11000011001111101001100101111000 !
b11000011001111101001100101111000 '
b10100100111011011011011001111000 (
1"
#150000
0"
#155000
b10100100111011011011011001111000 !
b10100100111011011011011001111000 '
b111001010110110111100101111000 (
1"
#160000
0"
#165000
b111001010110110111100101111000 !
b111001010110110111100101111000 '
b10010001101000101011001111000 (
1"
#170000
0"
#175000
b10010001101000101011001111000 !
b10010001101000101011001111000 '
b1010100101111101001100101111000 (
1"
#180000
0"
#185000
b1010100101111101001100101111000 !
b1010100101111101001100101111000 '
b11000011011011011011011001111000 (
1"
#190000
0"
#195000
b11000011011011011011011001111000 !
b11000011011011011011011001111000 '
b10101110110110110111100101111000 (
1"
#200000
0"
#205000
0#
1"
