SRC/PCG/PCG64-DXSM/pcg_dxsm_tb.vcd
$date
	Sun Dec  7 04:30:17 2025
$end
$version
	Icarus Verilog
$end
$timescale
	1ps
$end
$scope module tb_pcg_dxsm $end
$var wire 64 ! rand_out [63:0] $end
$var reg 1 " clk $end
$var reg 1 # en $end
$var reg 1 $ rst $end
$var reg 128 % seed [127:0] $end
$scope module uut $end
$var wire 1 " clk $end
$var wire 128 & data_in [127:0] $end
$var wire 1 # en $end
$var wire 1 $ rst $end
$var parameter 128 ' INC $end
$var parameter 128 ( MULT $end
$var reg 64 ) out [63:0] $end
$var reg 128 * state [127:0] $end
$var reg 64 + state1 [63:0] $end
$var reg 64 , z [63:0] $end
$upscope $end
$upscope $end
$enddefinitions $end
$comment Show the parameter values. $end
$dumpall
b100011011000001110110100000101000111111100011001011101101001000100001110000101110111110110010010011111110011001111011001000101 (
b1011000010100011111010000101101010011001001010101111111001011010001010000000101011110110111111011110111011001111000000101001111 '
$end
#0
$dumpvars
bx ,
bx +
b1001000110100010101100111100010011010101111001101111011111111111011011100101110101001100001110110010101000011001000010000 *
b0 )
b1001000110100010101100111100010011010101111001101111011111111111011011100101110101001100001110110010101000011001000010000 &
b1001000110100010101100111100010011010101111001101111011111111111011011100101110101001100001110110010101000011001000010000 %
1$
0#
0"
b0 !
$end
#5000
1"
#10000
0"
1#
0$
#15000
bx !
bx )
b100100011010001010110011110001001101010111100110111101111 +
b11011010110110101010110110011100011000111100001111100111010010000000011010011110010111001011101110011000111101000101111110011111 *
1"
#20000
0"
#25000
b1111110000110011100100101011101111001000101011000001100101011001 !
b1111110000110011100100101011101111001000101011000001100101011001 )
b1101101011011010101011011001110001100011110000111110011101001000 +
b10011011011111111011000011010110010000101000100111000010000110100101110010101010010001000100010111111000110111000001000100101010 *
b1111110000110011100100101011101111001000101011000001100101011001 ,
1"
#30000
0"
#35000
b1100011011010101110001001110101010110100100011011010110010000111 !
b1100011011010101110001001110101010110100100011011010110010000111 )
b1001101101111111101100001101011001000010100010011100001000011010 +
b11110100101001010001010011100001101100001111011010000000010000010101101010010100011001111110110101000110101011100111110110100001 *
b1100011011010101110001001110101010110100100011011010110010000111 ,
1"
#40000
0"
#45000
b1101110000101000111010011101011011010010010101101010010110101111 !
b1101110000101000111010011101011011010010010101101010010110101111 )
b1111010010100101000101001110000110110000111101101000000001000001 +
b1101011010011011001010011100000101111101101001011011101100100100100110100011011100001010101010111001100011101000001001110110100 *
b1101110000101000111010011101011011010010010101101010010110101111 ,
1"
#50000
0"
#55000
b1001101111010000010110110010010000000011100100111010101100100111 !
b1001101111010000010110110010010000000011100100111010101100100111 )
b110101101001101100101001110000010111110110100101101110110010010 +
b1000101010110010001000110011110010111000011111000110110101100010101111110001011000010010001100011101000011111100100011010011 *
b1001101111010000010110110010010000000011100100111010101100100111 ,
1"
#60000
0"
#65000
b100001101001101010111110111010010010110101010010001110001101101 !
b100001101001101010111110111010010010110101010010001110001101101 )
b100010101011001000100011001111001011100001111100011011010110 +
b111110111101100101010111100000011010010011100111100101110001011011111100101101100111011001111000001100110001110110010000101110 *
b100001101001101010111110111010010010110101010010001110001101101 ,
1"
#70000
0"
#75000
b11001101001100000010111100110111101111110111101011011111110000 !
b11001101001100000010111100110111101111110111101011011111110000 )
b11111011110110010101011110000001101001001110011110010111000101 +
b1001100000111101100101001111110100011101001011000010101100100111111100010110110000100010111010001101010000100011011010110110101 *
b11001101001100000010111100110111101111110111101011011111110000 ,
1"
#80000
0"
#85000
b10010100111111000001001000100100001100110001001100000111001000 !
b10010100111111000001001000100100001100110001001100000111001000 )
b100110000011110110010100111111010001110100101100001010110010011 +
b110110010011101111001001000011001011100001001011100111100011111110101011000000001110010111100011001010000001010110100100011000 *
b10010100111111000001001000100100001100110001001100000111001000 ,
1"
#90000
0"
#95000
b1101011100011000001111110100010111111101000001011000100101101000 !
b1101011100011000001111110100010111111101000001011000100101101000 )
b11011001001110111100100100001100101110000100101110011110001111 +
b1010010011101000110101111111001010101010111111010001100110010011101010010110010010010001000100111110011110010011000111 *
b1101011100011000001111110100010111111101000001011000100101101000 ,
1"
#100000
0"
#105000
b111010000100100011110010001000111000100011100110010101100001101 !
b111010000100100011110010001000111000100011100110010101100001101 )
b101001001110100011010111111100101010101011111101000110 +
b11110111110101110100111000001000111111110110001000101011101011001001100011100000001111111000001110011000001011010110010011110010 *
b111010000100100011110010001000111000100011100110010101100001101 ,
1"
